graph G {
0
1
2
3
4
5
6
7
8
9
10
11
12
13
14
15
16
17
18
19
20
21
22
23
24
25
26
27
28
29
30
31
32
33
34
35
36
37
38
39
40
41
42
43
44
45
46
47
48
49
50
51
52
53
54
55
56
57
58
59
60
61
62
63
64
65
66
67
68
69
70
71
72
73
74
75
76
77
78
79
80
81
82
83
84
85
86
87
88
89
90
91
92
93
94
95
96
97
98
99
0 -- 1[label="1",weight="1"];
0 -- 10[label="1",weight="1"];
1 -- 2[label="1",weight="1"];
1 -- 11[label="1",weight="1"];
2 -- 3[label="1",weight="1"];
2 -- 12[label="1",weight="1"];
3 -- 4[label="1",weight="1"];
3 -- 13[label="1",weight="1"];
4 -- 5[label="1",weight="1"];
4 -- 14[label="1",weight="1"];
5 -- 6[label="1",weight="1"];
5 -- 15[label="1",weight="1"];
6 -- 7[label="1",weight="1"];
6 -- 16[label="1",weight="1"];
7 -- 8[label="1",weight="1"];
7 -- 17[label="1",weight="1"];
8 -- 9[label="1",weight="1"];
8 -- 18[label="1",weight="1"];
9 -- 19[label="1",weight="1"];
10 -- 11[label="1",weight="1"];
10 -- 20[label="1",weight="1"];
11 -- 12[label="1",weight="1"];
11 -- 21[label="1",weight="1"];
12 -- 13[label="1",weight="1"];
12 -- 22[label="1",weight="1"];
13 -- 14[label="1",weight="1"];
13 -- 23[label="1",weight="1"];
14 -- 15[label="1",weight="1"];
14 -- 24[label="1",weight="1"];
15 -- 16[label="1",weight="1"];
15 -- 25[label="1",weight="1"];
16 -- 17[label="1",weight="1"];
16 -- 26[label="1",weight="1"];
17 -- 18[label="1",weight="1"];
17 -- 27[label="1",weight="1"];
18 -- 19[label="1",weight="1"];
18 -- 28[label="1",weight="1"];
19 -- 29[label="1",weight="1"];
20 -- 21[label="1",weight="1"];
20 -- 30[label="1",weight="1"];
21 -- 22[label="1",weight="1"];
21 -- 31[label="1",weight="1"];
22 -- 23[label="1",weight="1"];
22 -- 32[label="1",weight="1"];
23 -- 24[label="1",weight="1"];
23 -- 33[label="1",weight="1"];
24 -- 25[label="1",weight="1"];
24 -- 34[label="1",weight="1"];
25 -- 26[label="1",weight="1"];
25 -- 35[label="1",weight="1"];
26 -- 27[label="1",weight="1"];
26 -- 36[label="1",weight="1"];
27 -- 28[label="1",weight="1"];
27 -- 37[label="1",weight="1"];
28 -- 29[label="1",weight="1"];
28 -- 38[label="1",weight="1"];
29 -- 39[label="1",weight="1"];
30 -- 31[label="1",weight="1"];
30 -- 40[label="1",weight="1"];
31 -- 32[label="1",weight="1"];
31 -- 41[label="1",weight="1"];
32 -- 33[label="1",weight="1"];
32 -- 42[label="1",weight="1"];
33 -- 34[label="1",weight="1"];
33 -- 43[label="1",weight="1"];
34 -- 35[label="1",weight="1"];
34 -- 44[label="1",weight="1"];
35 -- 36[label="1",weight="1"];
35 -- 45[label="1",weight="1"];
36 -- 37[label="1",weight="1"];
36 -- 46[label="1",weight="1"];
37 -- 38[label="1",weight="1"];
37 -- 47[label="1",weight="1"];
38 -- 39[label="1",weight="1"];
38 -- 48[label="1",weight="1"];
39 -- 49[label="1",weight="1"];
40 -- 41[label="1",weight="1"];
40 -- 50[label="1",weight="1"];
41 -- 42[label="1",weight="1"];
41 -- 51[label="1",weight="1"];
42 -- 43[label="1",weight="1"];
42 -- 52[label="1",weight="1"];
43 -- 44[label="1",weight="1"];
43 -- 53[label="1",weight="1"];
44 -- 45[label="1",weight="1"];
44 -- 54[label="1",weight="1"];
45 -- 46[label="1",weight="1"];
45 -- 55[label="1",weight="1"];
46 -- 47[label="1",weight="1"];
46 -- 56[label="1",weight="1"];
47 -- 48[label="1",weight="1"];
47 -- 57[label="1",weight="1"];
48 -- 49[label="1",weight="1"];
48 -- 58[label="1",weight="1"];
49 -- 59[label="1",weight="1"];
50 -- 51[label="1",weight="1"];
50 -- 60[label="1",weight="1"];
51 -- 52[label="1",weight="1"];
51 -- 61[label="1",weight="1"];
52 -- 53[label="1",weight="1"];
52 -- 62[label="1",weight="1"];
53 -- 54[label="1",weight="1"];
53 -- 63[label="1",weight="1"];
54 -- 55[label="1",weight="1"];
54 -- 64[label="1",weight="1"];
55 -- 56[label="1",weight="1"];
55 -- 65[label="1",weight="1"];
56 -- 57[label="1",weight="1"];
56 -- 66[label="1",weight="1"];
57 -- 58[label="1",weight="1"];
57 -- 67[label="1",weight="1"];
58 -- 59[label="1",weight="1"];
58 -- 68[label="1",weight="1"];
59 -- 69[label="1",weight="1"];
60 -- 61[label="1",weight="1"];
60 -- 70[label="1",weight="1"];
61 -- 62[label="1",weight="1"];
61 -- 71[label="1",weight="1"];
62 -- 63[label="1",weight="1"];
62 -- 72[label="1",weight="1"];
63 -- 64[label="1",weight="1"];
63 -- 73[label="1",weight="1"];
64 -- 65[label="1",weight="1"];
64 -- 74[label="1",weight="1"];
65 -- 66[label="1",weight="1"];
65 -- 75[label="1",weight="1"];
66 -- 67[label="1",weight="1"];
66 -- 76[label="1",weight="1"];
67 -- 68[label="1",weight="1"];
67 -- 77[label="1",weight="1"];
68 -- 69[label="1",weight="1"];
68 -- 78[label="1",weight="1"];
69 -- 79[label="1",weight="1"];
70 -- 71[label="1",weight="1"];
70 -- 80[label="1",weight="1"];
71 -- 72[label="1",weight="1"];
71 -- 81[label="1",weight="1"];
72 -- 73[label="1",weight="1"];
72 -- 82[label="1",weight="1"];
73 -- 74[label="1",weight="1"];
73 -- 83[label="1",weight="1"];
74 -- 75[label="1",weight="1"];
74 -- 84[label="1",weight="1"];
75 -- 76[label="1",weight="1"];
75 -- 85[label="1",weight="1"];
76 -- 77[label="1",weight="1"];
76 -- 86[label="1",weight="1"];
77 -- 78[label="1",weight="1"];
77 -- 87[label="1",weight="1"];
78 -- 79[label="1",weight="1"];
78 -- 88[label="1",weight="1"];
79 -- 89[label="1",weight="1"];
80 -- 81[label="1",weight="1"];
80 -- 90[label="1",weight="1"];
81 -- 82[label="1",weight="1"];
81 -- 91[label="1",weight="1"];
82 -- 83[label="1",weight="1"];
82 -- 92[label="1",weight="1"];
83 -- 84[label="1",weight="1"];
83 -- 93[label="1",weight="1"];
84 -- 85[label="1",weight="1"];
84 -- 94[label="1",weight="1"];
85 -- 86[label="1",weight="1"];
85 -- 95[label="1",weight="1"];
86 -- 87[label="1",weight="1"];
86 -- 96[label="1",weight="1"];
87 -- 88[label="1",weight="1"];
87 -- 97[label="1",weight="1"];
88 -- 89[label="1",weight="1"];
88 -- 98[label="1",weight="1"];
89 -- 99[label="1",weight="1"];
90 -- 91[label="1",weight="1"];
91 -- 92[label="1",weight="1"];
92 -- 93[label="1",weight="1"];
93 -- 94[label="1",weight="1"];
94 -- 95[label="1",weight="1"];
95 -- 96[label="1",weight="1"];
96 -- 97[label="1",weight="1"];
97 -- 98[label="1",weight="1"];
98 -- 99[label="1",weight="1"];
}
