graph G {
0
1
2
3
4
5
6
7
8
9
10
11
12
13
14
15
16
17
18
19
20
21
22
23
24
25
26
27
28
29
30
31
32
33
34
35
36
37
38
39
40
41
42
43
44
45
46
47
48
49
50
51
52
53
54
55
56
57
58
59
60
61
62
63
64
65
66
67
68
69
70
71
72
73
74
75
76
77
78
79
80
81
82
83
84
85
86
87
88
89
90
91
92
93
94
95
96
97
98
99
100
101
102
103
104
105
106
107
108
109
110
111
112
113
114
115
116
117
118
119
120
121
122
123
124
125
126
127
128
129
130
131
132
133
134
135
136
137
138
139
140
141
142
143
144
145
146
147
148
149
150
151
152
153
154
155
156
157
158
159
160
161
162
163
164
165
166
167
168
169
170
171
172
173
174
175
176
177
178
179
180
181
182
183
184
185
186
187
188
189
190
191
192
193
194
195
196
197
198
199
200
201
202
203
204
205
206
207
208
209
210
211
212
213
214
215
216
217
218
219
220
221
222
223
224
0 -- 1[label="1",weight="1"];
0 -- 15[label="1",weight="1"];
1 -- 2[label="1",weight="1"];
1 -- 16[label="1",weight="1"];
2 -- 3[label="1",weight="1"];
2 -- 17[label="1",weight="1"];
3 -- 4[label="1",weight="1"];
3 -- 18[label="1",weight="1"];
4 -- 5[label="1",weight="1"];
4 -- 19[label="1",weight="1"];
5 -- 6[label="1",weight="1"];
5 -- 20[label="1",weight="1"];
6 -- 7[label="1",weight="1"];
6 -- 21[label="1",weight="1"];
7 -- 8[label="1",weight="1"];
7 -- 22[label="1",weight="1"];
8 -- 9[label="1",weight="1"];
8 -- 23[label="1",weight="1"];
9 -- 10[label="1",weight="1"];
9 -- 24[label="1",weight="1"];
10 -- 11[label="1",weight="1"];
10 -- 25[label="1",weight="1"];
11 -- 12[label="1",weight="1"];
11 -- 26[label="1",weight="1"];
12 -- 13[label="1",weight="1"];
12 -- 27[label="1",weight="1"];
13 -- 14[label="1",weight="1"];
13 -- 28[label="1",weight="1"];
14 -- 29[label="1",weight="1"];
15 -- 16[label="1",weight="1"];
15 -- 30[label="1",weight="1"];
16 -- 17[label="1",weight="1"];
16 -- 31[label="1",weight="1"];
17 -- 18[label="1",weight="1"];
17 -- 32[label="1",weight="1"];
18 -- 19[label="1",weight="1"];
18 -- 33[label="1",weight="1"];
19 -- 20[label="1",weight="1"];
19 -- 34[label="1",weight="1"];
20 -- 21[label="1",weight="1"];
20 -- 35[label="1",weight="1"];
21 -- 22[label="1",weight="1"];
21 -- 36[label="1",weight="1"];
22 -- 23[label="1",weight="1"];
22 -- 37[label="1",weight="1"];
23 -- 24[label="1",weight="1"];
23 -- 38[label="1",weight="1"];
24 -- 25[label="1",weight="1"];
24 -- 39[label="1",weight="1"];
25 -- 26[label="1",weight="1"];
25 -- 40[label="1",weight="1"];
26 -- 27[label="1",weight="1"];
26 -- 41[label="1",weight="1"];
27 -- 28[label="1",weight="1"];
27 -- 42[label="1",weight="1"];
28 -- 29[label="1",weight="1"];
28 -- 43[label="1",weight="1"];
29 -- 44[label="1",weight="1"];
30 -- 31[label="1",weight="1"];
30 -- 45[label="1",weight="1"];
31 -- 32[label="1",weight="1"];
31 -- 46[label="1",weight="1"];
32 -- 33[label="1",weight="1"];
32 -- 47[label="1",weight="1"];
33 -- 34[label="1",weight="1"];
33 -- 48[label="1",weight="1"];
34 -- 35[label="1",weight="1"];
34 -- 49[label="1",weight="1"];
35 -- 36[label="1",weight="1"];
35 -- 50[label="1",weight="1"];
36 -- 37[label="1",weight="1"];
36 -- 51[label="1",weight="1"];
37 -- 38[label="1",weight="1"];
37 -- 52[label="1",weight="1"];
38 -- 39[label="1",weight="1"];
38 -- 53[label="1",weight="1"];
39 -- 40[label="1",weight="1"];
39 -- 54[label="1",weight="1"];
40 -- 41[label="1",weight="1"];
40 -- 55[label="1",weight="1"];
41 -- 42[label="1",weight="1"];
41 -- 56[label="1",weight="1"];
42 -- 43[label="1",weight="1"];
42 -- 57[label="1",weight="1"];
43 -- 44[label="1",weight="1"];
43 -- 58[label="1",weight="1"];
44 -- 59[label="1",weight="1"];
45 -- 46[label="1",weight="1"];
45 -- 60[label="1",weight="1"];
46 -- 47[label="1",weight="1"];
46 -- 61[label="1",weight="1"];
47 -- 48[label="1",weight="1"];
47 -- 62[label="1",weight="1"];
48 -- 49[label="1",weight="1"];
48 -- 63[label="1",weight="1"];
49 -- 50[label="1",weight="1"];
49 -- 64[label="1",weight="1"];
50 -- 51[label="1",weight="1"];
50 -- 65[label="1",weight="1"];
51 -- 52[label="1",weight="1"];
51 -- 66[label="1",weight="1"];
52 -- 53[label="1",weight="1"];
52 -- 67[label="1",weight="1"];
53 -- 54[label="1",weight="1"];
53 -- 68[label="1",weight="1"];
54 -- 55[label="1",weight="1"];
54 -- 69[label="1",weight="1"];
55 -- 56[label="1",weight="1"];
55 -- 70[label="1",weight="1"];
56 -- 57[label="1",weight="1"];
56 -- 71[label="1",weight="1"];
57 -- 58[label="1",weight="1"];
57 -- 72[label="1",weight="1"];
58 -- 59[label="1",weight="1"];
58 -- 73[label="1",weight="1"];
59 -- 74[label="1",weight="1"];
60 -- 61[label="1",weight="1"];
60 -- 75[label="1",weight="1"];
61 -- 62[label="1",weight="1"];
61 -- 76[label="1",weight="1"];
62 -- 63[label="1",weight="1"];
62 -- 77[label="1",weight="1"];
63 -- 64[label="1",weight="1"];
63 -- 78[label="1",weight="1"];
64 -- 65[label="1",weight="1"];
64 -- 79[label="1",weight="1"];
65 -- 66[label="1",weight="1"];
65 -- 80[label="1",weight="1"];
66 -- 67[label="1",weight="1"];
66 -- 81[label="1",weight="1"];
67 -- 68[label="1",weight="1"];
67 -- 82[label="1",weight="1"];
68 -- 69[label="1",weight="1"];
68 -- 83[label="1",weight="1"];
69 -- 70[label="1",weight="1"];
69 -- 84[label="1",weight="1"];
70 -- 71[label="1",weight="1"];
70 -- 85[label="1",weight="1"];
71 -- 72[label="1",weight="1"];
71 -- 86[label="1",weight="1"];
72 -- 73[label="1",weight="1"];
72 -- 87[label="1",weight="1"];
73 -- 74[label="1",weight="1"];
73 -- 88[label="1",weight="1"];
74 -- 89[label="1",weight="1"];
75 -- 76[label="1",weight="1"];
75 -- 90[label="1",weight="1"];
76 -- 77[label="1",weight="1"];
76 -- 91[label="1",weight="1"];
77 -- 78[label="1",weight="1"];
77 -- 92[label="1",weight="1"];
78 -- 79[label="1",weight="1"];
78 -- 93[label="1",weight="1"];
79 -- 80[label="1",weight="1"];
79 -- 94[label="1",weight="1"];
80 -- 81[label="1",weight="1"];
80 -- 95[label="1",weight="1"];
81 -- 82[label="1",weight="1"];
81 -- 96[label="1",weight="1"];
82 -- 83[label="1",weight="1"];
82 -- 97[label="1",weight="1"];
83 -- 84[label="1",weight="1"];
83 -- 98[label="1",weight="1"];
84 -- 85[label="1",weight="1"];
84 -- 99[label="1",weight="1"];
85 -- 86[label="1",weight="1"];
85 -- 100[label="1",weight="1"];
86 -- 87[label="1",weight="1"];
86 -- 101[label="1",weight="1"];
87 -- 88[label="1",weight="1"];
87 -- 102[label="1",weight="1"];
88 -- 89[label="1",weight="1"];
88 -- 103[label="1",weight="1"];
89 -- 104[label="1",weight="1"];
90 -- 91[label="1",weight="1"];
90 -- 105[label="1",weight="1"];
91 -- 92[label="1",weight="1"];
91 -- 106[label="1",weight="1"];
92 -- 93[label="1",weight="1"];
92 -- 107[label="1",weight="1"];
93 -- 94[label="1",weight="1"];
93 -- 108[label="1",weight="1"];
94 -- 95[label="1",weight="1"];
94 -- 109[label="1",weight="1"];
95 -- 96[label="1",weight="1"];
95 -- 110[label="1",weight="1"];
96 -- 97[label="1",weight="1"];
96 -- 111[label="1",weight="1"];
97 -- 98[label="1",weight="1"];
97 -- 112[label="1",weight="1"];
98 -- 99[label="1",weight="1"];
98 -- 113[label="1",weight="1"];
99 -- 100[label="1",weight="1"];
99 -- 114[label="1",weight="1"];
100 -- 101[label="1",weight="1"];
100 -- 115[label="1",weight="1"];
101 -- 102[label="1",weight="1"];
101 -- 116[label="1",weight="1"];
102 -- 103[label="1",weight="1"];
102 -- 117[label="1",weight="1"];
103 -- 104[label="1",weight="1"];
103 -- 118[label="1",weight="1"];
104 -- 119[label="1",weight="1"];
105 -- 106[label="1",weight="1"];
105 -- 120[label="1",weight="1"];
106 -- 107[label="1",weight="1"];
106 -- 121[label="1",weight="1"];
107 -- 108[label="1",weight="1"];
107 -- 122[label="1",weight="1"];
108 -- 109[label="1",weight="1"];
108 -- 123[label="1",weight="1"];
109 -- 110[label="1",weight="1"];
109 -- 124[label="1",weight="1"];
110 -- 111[label="1",weight="1"];
110 -- 125[label="1",weight="1"];
111 -- 112[label="1",weight="1"];
111 -- 126[label="1",weight="1"];
112 -- 113[label="1",weight="1"];
112 -- 127[label="1",weight="1"];
113 -- 114[label="1",weight="1"];
113 -- 128[label="1",weight="1"];
114 -- 115[label="1",weight="1"];
114 -- 129[label="1",weight="1"];
115 -- 116[label="1",weight="1"];
115 -- 130[label="1",weight="1"];
116 -- 117[label="1",weight="1"];
116 -- 131[label="1",weight="1"];
117 -- 118[label="1",weight="1"];
117 -- 132[label="1",weight="1"];
118 -- 119[label="1",weight="1"];
118 -- 133[label="1",weight="1"];
119 -- 134[label="1",weight="1"];
120 -- 121[label="1",weight="1"];
120 -- 135[label="1",weight="1"];
121 -- 122[label="1",weight="1"];
121 -- 136[label="1",weight="1"];
122 -- 123[label="1",weight="1"];
122 -- 137[label="1",weight="1"];
123 -- 124[label="1",weight="1"];
123 -- 138[label="1",weight="1"];
124 -- 125[label="1",weight="1"];
124 -- 139[label="1",weight="1"];
125 -- 126[label="1",weight="1"];
125 -- 140[label="1",weight="1"];
126 -- 127[label="1",weight="1"];
126 -- 141[label="1",weight="1"];
127 -- 128[label="1",weight="1"];
127 -- 142[label="1",weight="1"];
128 -- 129[label="1",weight="1"];
128 -- 143[label="1",weight="1"];
129 -- 130[label="1",weight="1"];
129 -- 144[label="1",weight="1"];
130 -- 131[label="1",weight="1"];
130 -- 145[label="1",weight="1"];
131 -- 132[label="1",weight="1"];
131 -- 146[label="1",weight="1"];
132 -- 133[label="1",weight="1"];
132 -- 147[label="1",weight="1"];
133 -- 134[label="1",weight="1"];
133 -- 148[label="1",weight="1"];
134 -- 149[label="1",weight="1"];
135 -- 136[label="1",weight="1"];
135 -- 150[label="1",weight="1"];
136 -- 137[label="1",weight="1"];
136 -- 151[label="1",weight="1"];
137 -- 138[label="1",weight="1"];
137 -- 152[label="1",weight="1"];
138 -- 139[label="1",weight="1"];
138 -- 153[label="1",weight="1"];
139 -- 140[label="1",weight="1"];
139 -- 154[label="1",weight="1"];
140 -- 141[label="1",weight="1"];
140 -- 155[label="1",weight="1"];
141 -- 142[label="1",weight="1"];
141 -- 156[label="1",weight="1"];
142 -- 143[label="1",weight="1"];
142 -- 157[label="1",weight="1"];
143 -- 144[label="1",weight="1"];
143 -- 158[label="1",weight="1"];
144 -- 145[label="1",weight="1"];
144 -- 159[label="1",weight="1"];
145 -- 146[label="1",weight="1"];
145 -- 160[label="1",weight="1"];
146 -- 147[label="1",weight="1"];
146 -- 161[label="1",weight="1"];
147 -- 148[label="1",weight="1"];
147 -- 162[label="1",weight="1"];
148 -- 149[label="1",weight="1"];
148 -- 163[label="1",weight="1"];
149 -- 164[label="1",weight="1"];
150 -- 151[label="1",weight="1"];
150 -- 165[label="1",weight="1"];
151 -- 152[label="1",weight="1"];
151 -- 166[label="1",weight="1"];
152 -- 153[label="1",weight="1"];
152 -- 167[label="1",weight="1"];
153 -- 154[label="1",weight="1"];
153 -- 168[label="1",weight="1"];
154 -- 155[label="1",weight="1"];
154 -- 169[label="1",weight="1"];
155 -- 156[label="1",weight="1"];
155 -- 170[label="1",weight="1"];
156 -- 157[label="1",weight="1"];
156 -- 171[label="1",weight="1"];
157 -- 158[label="1",weight="1"];
157 -- 172[label="1",weight="1"];
158 -- 159[label="1",weight="1"];
158 -- 173[label="1",weight="1"];
159 -- 160[label="1",weight="1"];
159 -- 174[label="1",weight="1"];
160 -- 161[label="1",weight="1"];
160 -- 175[label="1",weight="1"];
161 -- 162[label="1",weight="1"];
161 -- 176[label="1",weight="1"];
162 -- 163[label="1",weight="1"];
162 -- 177[label="1",weight="1"];
163 -- 164[label="1",weight="1"];
163 -- 178[label="1",weight="1"];
164 -- 179[label="1",weight="1"];
165 -- 166[label="1",weight="1"];
165 -- 180[label="1",weight="1"];
166 -- 167[label="1",weight="1"];
166 -- 181[label="1",weight="1"];
167 -- 168[label="1",weight="1"];
167 -- 182[label="1",weight="1"];
168 -- 169[label="1",weight="1"];
168 -- 183[label="1",weight="1"];
169 -- 170[label="1",weight="1"];
169 -- 184[label="1",weight="1"];
170 -- 171[label="1",weight="1"];
170 -- 185[label="1",weight="1"];
171 -- 172[label="1",weight="1"];
171 -- 186[label="1",weight="1"];
172 -- 173[label="1",weight="1"];
172 -- 187[label="1",weight="1"];
173 -- 174[label="1",weight="1"];
173 -- 188[label="1",weight="1"];
174 -- 175[label="1",weight="1"];
174 -- 189[label="1",weight="1"];
175 -- 176[label="1",weight="1"];
175 -- 190[label="1",weight="1"];
176 -- 177[label="1",weight="1"];
176 -- 191[label="1",weight="1"];
177 -- 178[label="1",weight="1"];
177 -- 192[label="1",weight="1"];
178 -- 179[label="1",weight="1"];
178 -- 193[label="1",weight="1"];
179 -- 194[label="1",weight="1"];
180 -- 181[label="1",weight="1"];
180 -- 195[label="1",weight="1"];
181 -- 182[label="1",weight="1"];
181 -- 196[label="1",weight="1"];
182 -- 183[label="1",weight="1"];
182 -- 197[label="1",weight="1"];
183 -- 184[label="1",weight="1"];
183 -- 198[label="1",weight="1"];
184 -- 185[label="1",weight="1"];
184 -- 199[label="1",weight="1"];
185 -- 186[label="1",weight="1"];
185 -- 200[label="1",weight="1"];
186 -- 187[label="1",weight="1"];
186 -- 201[label="1",weight="1"];
187 -- 188[label="1",weight="1"];
187 -- 202[label="1",weight="1"];
188 -- 189[label="1",weight="1"];
188 -- 203[label="1",weight="1"];
189 -- 190[label="1",weight="1"];
189 -- 204[label="1",weight="1"];
190 -- 191[label="1",weight="1"];
190 -- 205[label="1",weight="1"];
191 -- 192[label="1",weight="1"];
191 -- 206[label="1",weight="1"];
192 -- 193[label="1",weight="1"];
192 -- 207[label="1",weight="1"];
193 -- 194[label="1",weight="1"];
193 -- 208[label="1",weight="1"];
194 -- 209[label="1",weight="1"];
195 -- 196[label="1",weight="1"];
195 -- 210[label="1",weight="1"];
196 -- 197[label="1",weight="1"];
196 -- 211[label="1",weight="1"];
197 -- 198[label="1",weight="1"];
197 -- 212[label="1",weight="1"];
198 -- 199[label="1",weight="1"];
198 -- 213[label="1",weight="1"];
199 -- 200[label="1",weight="1"];
199 -- 214[label="1",weight="1"];
200 -- 201[label="1",weight="1"];
200 -- 215[label="1",weight="1"];
201 -- 202[label="1",weight="1"];
201 -- 216[label="1",weight="1"];
202 -- 203[label="1",weight="1"];
202 -- 217[label="1",weight="1"];
203 -- 204[label="1",weight="1"];
203 -- 218[label="1",weight="1"];
204 -- 205[label="1",weight="1"];
204 -- 219[label="1",weight="1"];
205 -- 206[label="1",weight="1"];
205 -- 220[label="1",weight="1"];
206 -- 207[label="1",weight="1"];
206 -- 221[label="1",weight="1"];
207 -- 208[label="1",weight="1"];
207 -- 222[label="1",weight="1"];
208 -- 209[label="1",weight="1"];
208 -- 223[label="1",weight="1"];
209 -- 224[label="1",weight="1"];
210 -- 211[label="1",weight="1"];
211 -- 212[label="1",weight="1"];
212 -- 213[label="1",weight="1"];
213 -- 214[label="1",weight="1"];
214 -- 215[label="1",weight="1"];
215 -- 216[label="1",weight="1"];
216 -- 217[label="1",weight="1"];
217 -- 218[label="1",weight="1"];
218 -- 219[label="1",weight="1"];
219 -- 220[label="1",weight="1"];
220 -- 221[label="1",weight="1"];
221 -- 222[label="1",weight="1"];
222 -- 223[label="1",weight="1"];
223 -- 224[label="1",weight="1"];
}
